<?xml version="1.0" encoding="UTF-8"?>
<svg width="49px" height="49px" viewBox="0 0 49 49" version="1.1" xmlns="http://www.w3.org/2000/svg" xmlns:xlink="http://www.w3.org/1999/xlink">
    <!-- Generator: Sketch 50.2 (55047) - http://www.bohemiancoding.com/sketch -->
    <title>icon-Group</title>
    <desc>Created with Sketch.</desc>
    <defs></defs>
    <g id="Seminars" stroke="none" stroke-width="1" fill="none" fill-rule="evenodd">
        <g id="Seminar-1" transform="translate(-1143.000000, -1078.000000)" fill="#00A69B" fill-rule="nonzero" stroke="#00A69B" stroke-width="0.5">
            <g id="Group-5" transform="translate(1120.000000, 833.000000)">
                <g id="Group" transform="translate(24.000000, 246.000000)">
                    <path d="M42.2141152,39.9224246 L36.177318,33.8233778 C33.1185616,30.7331744 28.24293,30.5738788 24.9943413,33.3415112 L23.8812751,32.2170014 C22.8731113,31.1984728 21.2327838,31.1984728 20.2246201,32.2170014 C19.9226474,32.5220787 19.7117429,32.8848208 19.5907156,33.2702401 L18.4443004,32.1120386 C17.9559768,31.6186945 17.3066805,31.3469388 16.6159729,31.3469388 C15.9252653,31.3469388 15.275969,31.6186945 14.7876454,32.1120386 C14.4789846,32.4238727 14.2654232,32.7955006 14.1456786,33.1903609 L13.0783297,32.1120386 C12.5900061,31.6186945 11.9407098,31.3469388 11.2500022,31.3469388 C10.5593862,31.3469388 9.90999827,31.6186945 9.42167468,32.1120386 C9.07700802,32.4602488 8.84219125,32.8897265 8.73344076,33.3576166 C7.77594174,32.8280816 6.57382283,32.9345255 5.74293979,33.6986071 C5.21393784,34.1850092 4.91324778,34.8497741 4.89657332,35.5705377 C4.87980724,36.291579 5.14843102,36.9695799 5.65315421,37.4793996 L7.03246221,38.8728883 C7.30136084,39.1445515 7.73727897,39.1445515 8.00608599,38.8728883 C8.27498462,38.6012251 8.27498462,38.1608253 8.00608599,37.8892547 L6.626778,36.495766 C6.14413472,36.0081607 6.1654817,35.1910423 6.66974681,34.7275951 C7.13883063,34.296081 7.90338228,34.3319017 8.37393199,34.8071965 L12.4822634,38.9577657 C12.4907838,38.9663738 12.499854,38.9738711 12.5088326,38.9819238 C12.5703082,40.358474 13.6926279,41.4642867 15.0723024,41.4749311 L22.2452536,41.5293563 C22.2469944,41.5293563 22.2487351,41.5293563 22.2504759,41.5293563 C22.6283082,41.5293563 22.9360528,41.221317 22.938893,40.8389523 C22.9417332,40.4548289 22.6358209,40.1410509 22.2555148,40.1381816 L15.0826552,40.0837564 C14.4162263,40.0786656 13.8780626,39.5268237 13.8831016,38.8534507 C13.888049,38.1801703 14.433817,37.6331416 15.1007955,37.6415645 L22.0875792,37.6946939 C22.3198306,37.7611519 22.5797507,37.7023763 22.7625285,37.5177194 L25.4454681,34.8071965 C28.1357371,32.0891763 32.5133336,32.0891763 35.2036026,34.8071965 L41.2403082,40.9059656 C41.5202926,41.1888285 41.9931328,41.1698538 42.2506708,40.8660723 C42.4813647,40.5940389 42.4646903,40.1756683 42.2141152,39.9224246 Z M15.1111484,36.2503898 C14.2146669,36.2455767 13.4189651,36.7038406 12.9496065,37.4031303 L10.3952985,34.822654 C9.92401581,34.3465261 9.92401581,33.5718927 10.3952985,33.0957647 C10.8665811,32.6197294 11.6333316,32.6196368 12.1046143,33.0957647 L15.2281445,36.251408 L15.1111484,36.2503898 Z M17.1596337,36.2660325 C17.1311406,36.2179939 15.761086,34.8224689 15.761086,34.8224689 C15.2899866,34.346341 15.2899866,33.5718001 15.7611776,33.0957647 C16.2270548,32.6250979 17.0045246,32.6250979 17.4704934,33.0957647 L20.6016279,36.2922269 L17.1596337,36.2660325 Z M22.3050801,36.012511 L21.0490899,34.7436079 C20.734199,34.2692386 20.7836727,33.619561 21.1982439,33.2006351 C21.6696182,32.7245072 22.4363686,32.7245997 22.9075597,33.2006351 L23.9978131,34.3020974 L22.3050801,36.012511 Z" id="Shape"></path>
                    <path d="M36.763597,46.0901122 L33.4097393,42.701866 C33.2470258,42.5374797 33.013675,42.466116 32.7879284,42.5116555 L26.1472773,43.8534032 L14.4274196,43.8534032 L11.9461311,41.3466045 C11.6772325,41.0749413 11.2413143,41.0749413 10.9725073,41.3466045 C10.7036087,41.6182677 10.7036087,42.0586675 10.9725073,42.3302381 L13.6554469,45.040761 C13.7845365,45.1712704 13.9596184,45.2444853 14.142213,45.2444853 L26.215441,45.2444853 C26.2607919,45.2444853 26.3059596,45.2399499 26.3504859,45.2309716 L32.6965853,43.9486473 L35.7896983,47.0736532 C36.0697744,47.3565161 36.5425229,47.3375414 36.8000609,47.0337599 C37.0308465,46.7616339 37.0142636,46.3432634 36.763597,46.0901122 Z" id="Shape"></path>
                    <path d="M46.2198733,26.6515931 L44.6930604,26.6515931 C44.5217349,21.1776956 42.3320663,16.0564512 38.4809981,12.1658827 C34.4672164,8.11074273 29.1305634,5.87755102 23.454191,5.87755102 C17.7778187,5.87755102 12.4411657,8.11074273 8.42747563,12.1658827 C4.57640741,16.0564512 2.38673879,21.1776031 2.21541326,26.6515931 L0.688508772,26.6515931 C0.308294347,26.6515931 0,26.963057 0,27.3471805 L0,30.3149272 C0,30.6990506 0.308294347,31.0105145 0.688508772,31.0105145 L46.2199649,31.0105145 C46.600271,31.0105145 46.9084737,30.6990506 46.9084737,30.3149272 L46.9084737,27.3471805 C46.9083821,26.9628719 46.6001793,26.6515931 46.2198733,26.6515931 Z M45.5314561,29.6192473 L1.37692593,29.6192473 L1.37692593,28.0426752 L8.76664522,28.0426752 C9.14685965,28.0426752 9.455154,27.7312113 9.455154,27.3470879 C9.455154,26.9629645 9.14685965,26.6515006 8.76664522,26.6515006 L3.59334698,26.6515006 C3.95752827,15.9012283 12.7260975,7.2687257 23.454191,7.2687257 C34.1822846,7.2687257 42.9508538,15.9012283 43.3150351,26.6515931 L12.1631053,26.6515931 C11.7828908,26.6515931 11.4745965,26.963057 11.4745965,27.3471805 C11.4745965,27.7313039 11.7828908,28.0427678 12.1631053,28.0427678 L45.5313645,28.0427678 L45.5314561,29.6192473 Z" id="Shape"></path>
                    <path d="M23.4541452,0 C21.8597183,0 20.5625,1.31046248 20.5625,2.92137426 C20.5625,4.53228604 21.8597183,5.84265595 23.4541452,5.84265595 C25.0485721,5.84265595 26.3457904,4.53210092 26.3457904,2.9212817 C26.3457904,1.31055504 25.0485721,0 23.4541452,0 Z M23.4541452,4.45157384 C22.6189561,4.45157384 21.9395175,3.76514993 21.9395175,2.92137426 C21.9395175,2.07759859 22.6190478,1.39117467 23.4541452,1.39117467 C24.2892427,1.39117467 24.9687729,2.07769115 24.9687729,2.92137426 C24.9687729,3.76505737 24.2893343,4.45157384 23.4541452,4.45157384 Z" id="Shape"></path>
                </g>
            </g>
        </g>
    </g>
</svg>