<svg xmlns="http://www.w3.org/2000/svg" width="68" height="68" viewBox="0 0 68 68">
    <g fill="none" fill-rule="evenodd" transform="translate(2 2)">
        <circle cx="32" cy="32" r="32" stroke="#00BF66" stroke-width="4"/>
        <path stroke="#00BF66" stroke-linecap="round" stroke-linejoin="round" stroke-width="3" d="M54.545 31.455a5.818 5.818 0 1 0-11.636 0"/>
        <path stroke="#00BF66" stroke-linecap="round" stroke-linejoin="round" stroke-width="4" d="M20.715 46.82a19.546 19.546 0 0 0 9.83 2.635c8.504 0 15.745-5.405 18.475-12.967"/>
        <circle cx="13.818" cy="29.091" r="3.636" fill="#00BF66"/>
    </g>
</svg>
