<?xml version="1.0" encoding="UTF-8"?>
<svg width="26px" height="26px" viewBox="0 0 26 26" version="1.1" xmlns="http://www.w3.org/2000/svg" xmlns:xlink="http://www.w3.org/1999/xlink">
    <!-- Generator: sketchtool 50 (54983) - http://www.bohemiancoding.com/sketch -->
    <title>99511906-CE3A-4066-9A64-B0EBDB316262</title>
    <desc>Created with sketchtool.</desc>
    <defs></defs>
    <g id="Emails" stroke="none" stroke-width="1" fill="none" fill-rule="evenodd">
        <g id="wc-landing1-320-GRAB-2" transform="translate(-195.000000, -589.000000)" fill="#FFFFFF" fill-rule="nonzero">
            <g id="share" transform="translate(39.000000, 488.000000)">
                <g id="Instagram" transform="translate(157.000000, 102.000000)">
                    <path d="M12,0 C5.37257812,0 0,5.37257812 0,12 C0,18.6274219 5.37257812,24 12,24 C18.6274219,24 24,18.6274219 24,12 C24,5.37257813 18.6274219,0 12,0 Z M12,22.9090781 C5.9750625,22.9090781 1.09092187,18.0249375 1.09092187,12 C1.09092187,5.9750625 5.9750625,1.09092187 12,1.09092187 C18.0249375,1.09092187 22.9090781,5.9750625 22.9090781,12 C22.9090781,18.0249375 18.0249375,22.9090781 12,22.9090781 Z" id="Shape" stroke="#FFFFFF" stroke-width="0.666666667"></path>
                    <g id="if_Facebook_alt_367581" transform="translate(8.666667, 5.333333)">
                        <path d="M4.11850794,4.40930159 L6.40384127,4.40930159 L6.24444444,6.40380952 L4.11847619,6.40380952 L4.11847619,13.3333333 L1.4331746,13.3333333 L1.4331746,6.40377778 L0,6.40377778 L0,4.40926984 L1.4331746,4.40926984 L1.4331746,3.0688254 C1.4331746,2.47911111 1.44873016,1.56736508 1.89463492,1.0028254 C2.36450794,0.405936508 3.00980952,0 4.11850794,0 C5.9255873,0 6.68755556,0.247333333 6.68755556,0.247333333 L6.32914286,2.29015873 C6.32914286,2.29015873 5.73225397,2.12396825 5.17485714,2.12396825 C4.61752381,2.12396825 4.11853968,2.31533333 4.11853968,2.85190476 L4.11853968,4.40930159 L4.11850794,4.40930159 Z" id="Shape"></path>
                    </g>
                </g>
            </g>
        </g>
    </g>
</svg>