<?xml version="1.0" encoding="UTF-8"?>
<svg width="26px" height="26px" viewBox="0 0 26 26" version="1.1" xmlns="http://www.w3.org/2000/svg" xmlns:xlink="http://www.w3.org/1999/xlink">
    <!-- Generator: sketchtool 50 (54983) - http://www.bohemiancoding.com/sketch -->
    <title>954326ED-A769-481A-BBB8-878B435C39E3</title>
    <desc>Created with sketchtool.</desc>
    <defs></defs>
    <g id="Emails" stroke="none" stroke-width="1" fill="none" fill-rule="evenodd">
        <g id="wc-landing1-320-GRAB" transform="translate(-78.000000, -534.000000)" fill="#FFFFFF">
            <g id="share" transform="translate(40.000000, 488.000000)">
                <g id="Whatsapp" transform="translate(39.000000, 47.000000)">
                    <path d="M7.97847184,5.33333333 C7.96762527,5.33530872 7.95691734,5.33798142 7.94641471,5.34133479 C6.8512662,5.67768333 6.11197492,6.25777891 5.71042986,7.00029129 C5.30888225,7.74281137 5.25025617,8.62730607 5.42992997,9.54883316 C5.78928271,11.391913 7.09764961,13.4306439 8.75585726,15.1267739 C10.4140649,16.8229038 12.4239598,18.1724834 14.277698,18.5568868 C15.2045671,18.7491014 16.0974633,18.6949889 16.8663113,18.2924283 C17.6351618,17.889842 18.2577241,17.1422185 18.6534963,16.0243735 C18.6904841,15.9133408 18.6476211,15.7913513 18.5493106,15.7278579 L14.8787692,13.4277716 C14.8710634,13.4220254 14.8630408,13.4167169 14.8547391,13.4118713 L14.8387106,13.3959709 C14.8360436,13.3959293 14.8333761,13.3959293 14.8307091,13.3959709 C14.8254604,13.3931353 14.8201142,13.3904836 14.8146806,13.3880207 C14.8120136,13.3879791 14.8093461,13.3879791 14.8066791,13.3880207 C14.7940839,13.3787816 14.780671,13.3707124 14.7666077,13.3639138 C14.7639407,13.3638722 14.7612732,13.3638722 14.7586062,13.3639138 C14.7532647,13.3637468 14.7479192,13.3637468 14.7425777,13.3639138 C14.7399107,13.3638722 14.7372432,13.3638722 14.7345762,13.3639138 C14.7188363,13.3597434 14.7027351,13.3570813 14.6864905,13.3559636 C14.6702459,13.3570813 14.6541447,13.3597434 14.6384048,13.3639138 C14.5941083,13.3717441 14.5526502,13.3910868 14.5181906,13.4200009 C14.5153402,13.4252069 14.5126715,13.4305102 14.5101891,13.4359013 C14.4949189,13.4502337 14.4814615,13.4663825 14.4701177,13.483987 L13.5244323,14.4216709 C11.8822635,13.6487093 10.6639925,12.2939237 9.5814053,10.4625896 L10.4549621,9.58904563 L10.4950335,9.54896139 C10.5006072,9.54389912 10.5059552,9.53859387 10.5110621,9.53306105 C10.5137291,9.53310266 10.5163966,9.53310266 10.5190635,9.53306105 C10.5219139,9.52785512 10.5245826,9.52255181 10.527065,9.51716072 C10.5297901,9.51456964 10.5324579,9.51191894 10.5350665,9.50921055 C10.5379168,9.50400461 10.5405855,9.49870131 10.5430679,9.49331021 C10.543109,9.49066032 10.543109,9.48800994 10.5430679,9.48536004 C10.545793,9.48276896 10.5484608,9.48011827 10.5510694,9.47740988 C10.5539197,9.47220394 10.5565885,9.46690063 10.5590708,9.46150954 C10.561796,9.45891846 10.5644638,9.45626776 10.5670723,9.45355937 C10.5672366,9.44826053 10.5672366,9.44295787 10.5670723,9.43765903 C10.5672366,9.4323602 10.5672366,9.42705754 10.5670723,9.4217587 C10.5697974,9.41916762 10.5724652,9.41651692 10.5750738,9.41380853 C10.5752381,9.40850969 10.5752381,9.40320703 10.5750738,9.39790819 C10.5751148,9.3952583 10.5751148,9.39260792 10.5750738,9.38995802 C10.5752381,9.38465919 10.5752381,9.37935653 10.5750738,9.37405769 C10.5751148,9.37140779 10.5751148,9.36875742 10.5750738,9.36610752 C10.5752381,9.36080868 10.5752381,9.35550602 10.5750738,9.35020718 C10.5751148,9.34755729 10.5751148,9.34490691 10.5750738,9.34225701 C10.5752381,9.33695818 10.5752381,9.33165552 10.5750738,9.32635668 C10.5751148,9.32370678 10.5751148,9.32105641 10.5750738,9.31840651 C10.5725914,9.31301541 10.5699226,9.30771211 10.5670723,9.30250617 C10.5671134,9.29985628 10.5671134,9.2972059 10.5670723,9.294556 C10.5645899,9.28916491 10.5619212,9.2838616 10.5590708,9.27865567 C10.5591119,9.27600577 10.5591119,9.2733554 10.5590708,9.2707055 C10.553964,9.26517269 10.5486159,9.25986743 10.5430423,9.25480516 C10.5430834,9.25215527 10.5430834,9.24950489 10.5430423,9.24685499 C10.5404337,9.2441466 10.5377659,9.24149591 10.5350408,9.23890483 C10.5262008,9.22171973 10.5154469,9.20558879 10.5029837,9.19081913 C10.5003751,9.18811074 10.4977073,9.18546004 10.4949822,9.18286896 L8.24296882,5.45624037 C8.19777625,5.38406111 8.11970476,5.33901987 8.03459747,5.33602613 C8.01595373,5.33397487 7.99714123,5.33397487 7.97849749,5.33602613 L7.97847184,5.33333333 Z" id="Shape"></path>
                    <path d="M11.8650849,0 C5.32014472,0 0,5.31740225 0,11.865093 C0,14.2444369 0.705071461,16.468347 1.94823101,18.3761852 L0.621322247,22.8042121 C0.56329083,22.9980119 0.618594643,23.2079894 0.764560793,23.3480604 C0.910526942,23.4881313 1.12260485,23.5347366 1.31384899,23.4687694 L5.64800629,21.9729762 C7.4527173,23.0868458 9.58684584,23.7301807 11.8650849,23.7301807 C18.412594,23.7301807 23.7301688,18.4125897 23.7301688,11.865093 C23.7301688,5.31756404 18.412594,3.06571248e-14 11.8650849,3.06571248e-14 Z M11.8650849,1.07848989 C17.8299333,1.07848989 22.651687,5.90022472 22.651687,11.865093 C22.651687,17.829929 17.8299333,22.6516908 11.8650849,22.6516908 C9.70280899,22.6516908 7.69177618,22.0174706 6.01028225,20.9264413 C5.87097289,20.8360579 5.69779349,20.8148897 5.54081528,20.8690571 L1.95648809,22.1060548 L3.05401618,18.4432503 C3.10067286,18.2875315 3.07460438,18.1190752 2.98306247,17.9847425 C1.76455281,16.1969043 1.07848449,14.1145133 1.07848449,11.865093 C1.07848449,5.90038652 5.90305888,1.07848989 11.8650849,1.07848989 Z" id="Shape" stroke="#FFFFFF"></path>
                </g>
            </g>
        </g>
    </g>
</svg>