<svg xmlns="http://www.w3.org/2000/svg" width="32" height="32" viewBox="0 0 32 32">
    <g fill="none" fill-rule="evenodd" transform="translate(1 1)">
        <circle cx="15" cy="15" r="15" stroke="#00BF66" stroke-width="2"/>
        <g fill="#00BF66" fill-rule="nonzero" transform="translate(9.167 9.167)">
            <circle cx="1.742" cy="1.742" r="1.364"/>
            <path d="M.379 3.788h2.727v7.5H.379zM9.488 3.788c-2.046 0-2.291 1.214-2.291 1.214V3.788H4.47v7.5h2.727V7.197s0-1.364 1.16-1.364c.68 0 .885.607.885 1.364v4.09h2.728v-4.09c0-2.134-.928-3.41-2.482-3.41z"/>
        </g>
    </g>
</svg>
