<svg xmlns="http://www.w3.org/2000/svg" width="30" height="31" viewBox="0 0 30 31">
    <g fill="none" fill-rule="evenodd" opacity=".5" transform="matrix(-1 0 0 1 30 .214)">
        <ellipse cx="15" cy="15.214" stroke="#FFF" stroke-width="2" rx="14" ry="14.214"/>
        <path fill="#FFF" d="M17.98 14.774l.47.47-.72.722-.004-.003-3.29 3.29-1.443-1.444 2.595-2.595-2.595-2.595 1.443-1.443 3.571 3.571-.026.027z"/>
    </g>
</svg>
