<?xml version="1.0" encoding="UTF-8"?>
<svg width="75px" height="65px" viewBox="0 0 75 65" version="1.1" xmlns="http://www.w3.org/2000/svg" xmlns:xlink="http://www.w3.org/1999/xlink">
    <!-- Generator: Sketch 49.3 (51167) - http://www.bohemiancoding.com/sketch -->
    <title>icon-RadioButton/Active</title>
    <desc>Created with Sketch.</desc>
    <defs>
        <path d="M12.9802817,56.143662 L67.7859155,56.143662 L67.7859155,56.143662 C67.7859155,60.1341138 64.5510152,63.3690141 60.5605634,63.3690141 L20.2056338,63.3690141 C16.215182,63.3690141 12.9802817,60.1341138 12.9802817,56.143662 Z" id="path-1"></path>
    </defs>
    <g id="Product" stroke="none" stroke-width="1" fill="none" fill-rule="evenodd">
        <g id="ML_-B_GRID_1920_Product" transform="translate(-1203.000000, -1853.000000)">
            <g id="RadioButton/Active" transform="translate(1204.000000, 1854.000000)">
                <g id="Group-13" transform="translate(36.056338, 32.000000) scale(-1, 1) translate(-36.056338, -32.000000) ">
                    <g id="Group-10" transform="translate(26.389571, 17.684613) rotate(-45.000000) translate(-26.389571, -17.684613) translate(17.826190, 6.417007)" stroke="#8e9099">
                        <path d="M11.3590037,18.5374338 C11.6565531,18.2721881 12.1123694,18.2988466 12.377098,18.5969772 C12.6418266,18.8951077 12.6152201,19.3518143 12.3176707,19.6170599 C11.7171366,20.1523964 10.6466695,21.0258975 9.09903497,22.2442099 C8.85979578,22.4325412 8.52832515,22.4501685 8.27053354,22.2882688 C3.27217008,19.1491687 0.721126761,15.5707326 0.721126761,11.5605634 C0.721126761,7.55039417 3.27217008,3.97195802 8.27053354,0.832857947 C8.50475487,0.685760966 8.80228739,0.685760966 9.03650871,0.832857947 C14.0348722,3.97195802 16.5859155,7.55039417 16.5859155,11.5605634 C16.5859155,13.2075741 16.1522544,14.7912855 15.2910785,16.3006136 C15.0934161,16.6470438 14.6528894,16.767331 14.3071345,16.5692826 C13.9613796,16.3712342 13.8413269,15.9298471 14.0389892,15.5834169 C14.7774865,14.2890997 15.143662,12.9518431 15.143662,11.5605634 C15.143662,8.21836052 13.012027,5.13447812 8.65352113,2.30193527 C4.29501523,5.13447812 2.16338028,8.21836052 2.16338028,11.5605634 C2.16338028,14.8915976 4.28079252,17.966035 8.60990145,20.7907867 C9.92005854,19.7544446 10.8382411,19.0016592 11.3590037,18.5374338 Z" id="Oval-2" stroke-width="0.5" fill="#8e9099" fill-rule="nonzero"></path>
                        <path d="M8.65352113,2.16760563 L8.65352113,20.9535211" id="Line-8" stroke-width="2" stroke-linecap="square"></path>
                        <path d="M9.37464789,10.8380282 L13.0516873,7.15380703" id="Line-9" stroke-width="2" stroke-linecap="square"></path>
                        <path d="M3.6056338,10.8380282 L7.28267323,7.15380703" id="Line-9-Copy" stroke-width="2" stroke-linecap="square" transform="translate(5.769014, 8.670423) scale(-1, 1) translate(-5.769014, -8.670423) "></path>
                    </g>
                    <polygon id="Rectangle-10" stroke="#8e9099" stroke-width="2" stroke-linecap="round" stroke-linejoin="round" points="47.5943662 30.1323944 53.3633803 25.7971831 59.1323944 30.1323944 59.1323944 41.6929577 47.5943662 41.6929577"></polygon>
                    <path d="M53.3633803,25.7971831 L53.3633803,18.571831" id="Line-10" stroke="#8e9099" stroke-width="2" stroke-linecap="square"></path>
                    <path d="M38.6253521,18.571831 L67.7859155,18.571831 L67.7859155,33.0225352 C67.7859155,47.3881616 56.1629754,59.0338028 41.8253521,59.0338028 L38.9408451,59.0338028 C31.2521932,59.0338028 24.3442072,55.6848466 19.5906502,50.3633803 L12.9802817,50.3633803 C5.81147006,50.3633803 8.77926221e-16,44.5405597 0,37.3577465 C-8.77926221e-16,30.1749333 5.81147006,24.3521127 12.9802817,24.3521127 L12.9802817,18.571831 L16.1802817,18.571831" id="Combined-Shape" stroke="#8e9099" stroke-width="2" stroke-linecap="round" stroke-linejoin="round"></path>
                    <path d="M37.391758,0 C39.1723179,0.892018779 40.0625978,2.23004695 40.0625978,4.01408451 C40.0625978,6.69014085 37.391758,6.69014085 37.391758,9.36619718 C37.391758,11.1502347 38.2820379,12.4882629 40.0625978,13.3802817" id="Path-2" stroke="#8e9099" stroke-width="2" stroke-linecap="round" stroke-linejoin="round"></path>
                    <path d="M50.7459572,0 C52.5265171,0.892018779 53.4167971,2.23004695 53.4167971,4.01408451 C53.4167971,6.69014085 50.7459572,6.69014085 50.7459572,9.36619718 C50.7459572,11.1502347 51.6362372,12.4882629 53.4167971,13.3802817" id="Path-2-Copy" stroke="#8e9099" stroke-width="2" stroke-linecap="round" stroke-linejoin="round"></path>
                    <path d="M44.0688576,0 C45.8494175,0.892018779 46.7396974,2.23004695 46.7396974,4.01408451 C46.7396974,6.69014085 44.0688576,6.69014085 44.0688576,9.36619718 C44.0688576,11.1502347 44.9591375,12.4882629 46.7396974,13.3802817" id="Path-2-Copy-2" stroke="#8e9099" stroke-width="2" stroke-linecap="round" stroke-linejoin="round"></path>
                    <path d="M14.4868029,45.8140778 L12.4394333,45.8140778 C7.95892785,45.8140778 4.32676056,42.1819105 4.32676056,37.7014051 C4.32676056,33.2261723 7.95038436,29.5972821 12.4236191,29.5887475 L12.4236191,36.6497535 C12.4236191,39.9301207 13.1640116,43.03756 14.4868029,45.8140778 Z" id="Combined-Shape" stroke="#8e9099" stroke-width="2" stroke-linecap="round" stroke-linejoin="round"></path>
                    <g id="Rectangle-7">
                        <use fill="#F5F5F5" fill-rule="evenodd" xlink:href="#path-1"></use>
                        <path stroke="#8e9099" stroke-width="2" d="M14.0601731,57.143662 C14.5385697,60.1064141 17.1078725,62.3690141 20.2056338,62.3690141 L60.5605634,62.3690141 C63.6583247,62.3690141 66.2276275,60.1064141 66.7060241,57.143662 L14.0601731,57.143662 Z"></path>
                    </g>
                    <path d="M9.37464789,56.8661972 L71.4083174,56.8661972" id="Line-3" stroke="#8e9099" stroke-width="2" stroke-linecap="round"></path>
                </g>
            </g>
        </g>
    </g>
</svg>