<?xml version="1.0" encoding="UTF-8"?>
<svg width="86px" height="101px" viewBox="0 0 86 101" version="1.1" xmlns="http://www.w3.org/2000/svg" xmlns:xlink="http://www.w3.org/1999/xlink">
    <!-- Generator: Sketch 55.2 (78181) - https://sketchapp.com -->
    <title>Group</title>
    <desc>Created with Sketch.</desc>
    <g id="Symbols" stroke="none" stroke-width="1" fill="none" fill-rule="evenodd">
        <g id="D-Need-Help-Banner-option-2-" transform="translate(-33.000000, -25.000000)" stroke="#FFFFFF" stroke-width="4">
            <g id="D-Need-Help-Banner">
                <g id="Agent-Pic-1" transform="translate(35.000000, 27.000000)">
                    <g id="Group">
                        <path d="M38.8554688,82 L6,82 C2.6862915,82 4.05812251e-16,79.3137085 0,76 L0,6 C-4.05812251e-16,2.6862915 2.6862915,6.08718376e-16 6,0 L76,0 C79.3137085,-6.08718376e-16 82,2.6862915 82,6 L82,76 C82,79.3137085 79.3137085,82 76,82 L61.0214844,82 L61.0214844,95 L38.8554688,82 Z" id="Path-3"></path>
                    </g>
                </g>
            </g>
        </g>
    </g>
</svg>