<?xml version="1.0" encoding="UTF-8"?>
<svg width="30px" height="30px" viewBox="0 0 30 30" version="1.1" xmlns="http://www.w3.org/2000/svg" xmlns:xlink="http://www.w3.org/1999/xlink">
    <!-- Generator: Sketch 49.3 (51167) - http://www.bohemiancoding.com/sketch -->
    <title>icon-Group 3</title>
    <desc>Created with Sketch.</desc>
    <defs></defs>
    <g id="Symbols" stroke="none" stroke-width="1" fill="none" fill-rule="evenodd">
        <g id="RadioButton/E-mail/Active" stroke="#00BF66" stroke-width="2">
            <g id="Group-3">
                <g>
                    <circle id="RadioButton/Disactive" cx="15" cy="15" r="14"></circle>
                    <g id="Group-2" transform="translate(8.000000, 10.000000)">
                        <g id="Group">
                            <rect id="Rectangle-6" x="1" y="1" width="12" height="9"></rect>
                        </g>
                        <polyline id="Path-2" points="0.983969776 1.02006474 7.01238682 6.04638953 13.0097041 1.02006474"></polyline>
                    </g>
                </g>
            </g>
        </g>
    </g>
</svg>