<svg xmlns="http://www.w3.org/2000/svg" width="39" height="39" viewBox="0 0 39 39">
    <g fill="none" fill-rule="evenodd" transform="translate(1 1)">
        <circle cx="18.5" cy="18.5" r="18.5" stroke="#00BF66"/>
        <path fill="#00BF66" d="M23.88 15.941s.12 1.036.12 2.071v.971c0 1.036-.12 2.071-.12 2.071s-.117.882-.477 1.27c-.456.51-.968.512-1.202.542C20.52 22.996 18 23 18 23s-3.12-.03-4.08-.129c-.267-.053-.867-.037-1.323-.547-.36-.388-.477-1.27-.477-1.27S12 20.02 12 18.984v-.972c0-1.035.12-2.07.12-2.07s.117-.882.477-1.27c.456-.51.968-.513 1.202-.542 1.68-.13 4.198-.13 4.198-.13h.006s2.518 0 4.198.13c.234.03.746.032 1.202.541.36.389.477 1.27.477 1.27zm-7.119 4.219l3.242-1.792-3.242-1.804v3.596z"/>
    </g>
</svg>
