<svg xmlns="http://www.w3.org/2000/svg" width="63" height="64" viewBox="0 0 63 64">
    <path fill="#00BF66" fill-rule="nonzero" d="M29.85 2.511v-.95C29.85.699 30.567 0 31.449 0c.882 0 1.597.699 1.597 1.561v.95c0 .862-.715 1.561-1.597 1.561s-1.597-.699-1.597-1.56zm-15.445 4.88c.296.502.832.782 1.385.782.27 0 .545-.068.796-.21a1.542 1.542 0 0 0 .586-2.131l-.486-.823a1.618 1.618 0 0 0-2.181-.572 1.542 1.542 0 0 0-.586 2.132l.486.823zm31.904.573c.251.142.526.21.797.21.551 0 1.088-.281 1.384-.782l.486-.823a1.542 1.542 0 0 0-.584-2.132 1.618 1.618 0 0 0-2.182.572l-.486.822a1.542 1.542 0 0 0 .585 2.133zm12.263 11.413c.271 0 .546-.068.797-.21l.842-.475a1.542 1.542 0 0 0 .585-2.132 1.617 1.617 0 0 0-2.182-.571l-.842.475a1.542 1.542 0 0 0-.585 2.132c.296.5.833.78 1.385.78zm4.152 27.684c-2.074 4.017-7.87 6.716-14.422 6.716-4.492 0-8.7-1.266-11.56-3.434-1.638 1.098-3.368 1.804-5.082 2.02a1.727 1.727 0 0 1-.424 0c-1.714-.216-3.444-.923-5.083-2.02-2.86 2.168-7.067 3.434-11.56 3.434-6.552 0-12.347-2.7-14.421-6.716a1.53 1.53 0 0 1 0-1.407c1.53-2.964 5.03-5.213 9.458-6.187-2.298-3.19-3.137-6.958-2.096-10.183.127-.394.41-.723.785-.914 2.624-1.337 5.953-1.433 9.193-.324.48-1.557 1.237-2.912 2.263-3.968a1.62 1.62 0 0 1 1.363-.474c.837.106 1.679.329 2.512.657 1.69-3.49 4.18-6.093 7.131-7.417.423-.19.91-.19 1.332 0 2.95 1.323 5.44 3.924 7.13 7.413a10.544 10.544 0 0 1 2.515-.653 1.619 1.619 0 0 1 1.363.474c1.025 1.056 1.782 2.411 2.263 3.968 3.24-1.11 6.568-1.012 9.192.324.376.19.658.52.786.914 1.04 3.224.202 6.993-2.096 10.183 4.428.974 7.928 3.222 9.458 6.187a1.53 1.53 0 0 1 0 1.407zm-19.339-4.428c1.734-.421 3.457-1.289 4.975-2.533 3.1-2.542 4.724-6.243 4.122-9.234-1.876-.713-4.216-.602-6.522.302.222 2.915-.316 6.211-1.645 9.456-.282.69-.593 1.36-.93 2.009zm-16.934-16.85c1.84 1.28 3.556 3.051 4.993 5.17 1.445-2.142 3.16-3.91 4.995-5.183-1.23-2.598-2.99-4.63-4.991-5.752-2.004 1.124-3.767 3.16-4.997 5.764zM14.535 40.1c1.518 1.244 3.241 2.112 4.976 2.533a24.49 24.49 0 0 1-.93-2.01c-1.33-3.244-1.867-6.54-1.646-9.455-2.306-.904-4.646-1.015-6.522-.303-.601 2.992 1.022 6.693 4.122 9.235zm9.095 8.173a20.976 20.976 0 0 1-1.96-2.23c-3.166-.052-6.468-1.32-9.188-3.552a16.164 16.164 0 0 1-.338-.285c-3.89.471-7.151 2.038-8.685 4.151 1.865 2.564 6.274 4.298 11.134 4.298 3.45 0 6.75-.889 9.037-2.382zm7.197-11.77c-1.592-3.887-4.253-7.094-7.05-8.712a1.613 1.613 0 0 1-.222-.124 8.682 8.682 0 0 0-1.992-.805c-.662.925-1.105 2.109-1.326 3.457a1.518 1.518 0 0 1-.037.246c-.369 2.605.071 5.786 1.346 8.9 1.286 3.141 3.27 5.838 5.461 7.611.052.036.1.076.148.118 1.187.935 2.431 1.597 3.654 1.912 1.963-2.743 2.003-7.755.018-12.602zm10.523 2.961c1.274-3.112 1.714-6.292 1.346-8.896a1.519 1.519 0 0 1-.039-.252c-.22-1.347-.664-2.53-1.325-3.455a8.7 8.7 0 0 0-1.966.788c-.086.06-.18.113-.28.157-2.173 1.262-4.27 3.485-5.849 6.283.196.41.381.829.556 1.255 1.81 4.424 2.152 8.945 1.104 12.461.285-.189.568-.394.847-.614.045-.04.09-.077.139-.11 2.192-1.774 4.18-4.473 5.467-7.617zm18.086 6.893c-1.534-2.113-4.794-3.68-8.685-4.15-.11.095-.223.19-.338.284-2.72 2.231-6.022 3.5-9.187 3.552a20.978 20.978 0 0 1-1.96 2.23c2.286 1.493 5.586 2.382 9.036 2.382 4.86 0 9.27-1.734 11.134-4.298zM46.931 57.902a1.623 1.623 0 0 0-2.253.152c-1.007 1.13-5.778 2.722-13.23 2.722-7.452 0-12.223-1.592-13.23-2.722a1.623 1.623 0 0 0-2.254-.152 1.536 1.536 0 0 0-.155 2.203c2.495 2.8 9.984 3.793 15.639 3.793 5.655 0 13.143-.994 15.639-3.793.579-.65.51-1.636-.156-2.203zm-36.48-33.028c.849.233 1.732-.25 1.97-1.08C14.81 15.513 22.634 9.729 31.449 9.729c8.815 0 16.638 5.784 19.026 14.067.198.688.84 1.138 1.536 1.138.144 0 .29-.02.434-.06.85-.233 1.344-1.095 1.104-1.925-2.773-9.622-11.862-16.342-22.1-16.342-10.239 0-19.327 6.72-22.1 16.342-.24.83.254 1.692 1.103 1.926zm20.997 33.778c1.372 0 5.976-.144 7.615-1.983.58-.65.51-1.637-.156-2.203a1.623 1.623 0 0 0-2.244.143c-.364.323-2.255.92-5.215.92-2.961 0-4.852-.597-5.216-.92a1.623 1.623 0 0 0-2.244-.143 1.536 1.536 0 0 0-.156 2.203c1.64 1.84 6.244 1.983 7.616 1.983zM2.684 18.692l.842.475c.251.142.526.21.797.21.552 0 1.089-.28 1.385-.78a1.542 1.542 0 0 0-.584-2.133l-.842-.475a1.618 1.618 0 0 0-2.182.57 1.542 1.542 0 0 0 .584 2.133z"/>
</svg>
