<?xml version="1.0" encoding="UTF-8"?>
<svg width="50px" height="50px" viewBox="0 0 50 50" version="1.1" xmlns="http://www.w3.org/2000/svg" xmlns:xlink="http://www.w3.org/1999/xlink">
    <!-- Generator: Sketch 54.1 (76490) - https://sketchapp.com -->
    <title>Icon / bonus_50</title>
    <desc>Created with Sketch.</desc>
    <defs>
        <path d="M50,25 L42.7166667,32.3666667 L42.7166667,42.65 L32.3333333,42.65 L25,50 L17.6666667,42.7166667 L7.35,42.7166667 L7.35,32.3333333 L0,25 L7.3,17.7333333 L7.3,7.35 L17.6666667,7.35 L25,0 L32.3333333,7.33333333 L42.65,7.33333333 L42.65,17.6666667 L50,25 Z M30.2666667,37.7333333 L37.7,37.7 L37.7,30.25 L42.9666667,25 L37.7,19.8 L37.7,12.35 L30.25,12.35 L25,7.08333333 L19.75,12.35 L12.3,12.35 L12.3,19.75 L7.03333333,25 L12.3,30.3 L12.3,37.7333333 L19.75,37.7333333 L25,43 L30.2666667,37.7333333 Z M24.6833333,19.8 C24.0040796,19.94517 23.4860746,20.4963805 23.3833333,21.1833333 C23.2833333,21.95 23.9333333,22.45 25.35,22.65 C27.4050039,22.8178319 29.2907157,23.8546702 30.5333333,25.5 C31.4316745,26.8159805 31.7842045,28.4292533 31.5166667,30 C31.0520598,32.175499 29.5329549,33.9759196 27.4666667,34.8 L27.4666667,37.1333333 L22.4666667,37.1333333 L22.4666667,34.8 C19.9560037,33.8034325 18.3146121,31.3678192 18.3333333,28.6666667 L23.3333333,28.6666667 C23.3464257,29.1534088 23.571719,29.6100843 23.95,29.9166667 C24.1471835,30.0684153 24.3744595,30.1763714 24.6166667,30.2333333 C25.0476638,30.333078 25.5006343,30.2573785 25.875779,30.0229131 C26.2509237,29.7884476 26.5174608,29.4144548 26.6166667,28.9833333 C26.7333333,28.2166667 26.0666667,27.7166667 24.65,27.5166667 C22.5949961,27.3488348 20.7092843,26.3119964 19.4666667,24.6666667 C18.5683255,23.3506862 18.2157955,21.7374133 18.4833333,20.1666667 C18.9160349,17.967099 20.4252353,16.132262 22.5,15.2833333 L22.5,12.9666667 L27.5,12.9666667 L27.5,15.3166667 C30.0582434,16.2683968 31.7313425,18.737891 31.6666667,21.4666667 L26.6666667,21.4666667 C26.6749377,21.3668377 26.6749377,21.2664956 26.6666667,21.1666667 C26.5942456,20.7176456 26.3414646,20.3177265 25.9669463,20.0596551 C25.5924281,19.8015837 25.12871,19.7077807 24.6833333,19.8 Z" id="path-1"></path>
    </defs>
    <g id="Icon-/-bonus_50" stroke="none" stroke-width="1" fill="none" fill-rule="evenodd">
        <g>
            <mask id="mask-2" fill="white">
                <use xlink:href="#path-1"></use>
            </mask>
            <use id="Combined-Shape" fill="#282B3E" fill-rule="nonzero" xlink:href="#path-1"></use>
            <g id="Colour-/-Navy-Black-#1" mask="url(#mask-2)" fill="#282B3E">
                <rect id="Rectangle" x="0" y="0" width="50" height="50"></rect>
            </g>
        </g>
    </g>
</svg>