<?xml version="1.0" encoding="utf-8"?>
<!-- Generator: Adobe Illustrator 15.0.0, SVG Export Plug-In . SVG Version: 6.00 Build 0)  -->
<!DOCTYPE svg PUBLIC "-//W3C//DTD SVG 1.1//EN" "http://www.w3.org/Graphics/SVG/1.1/DTD/svg11.dtd">
<svg version="1.1" id="Layer_1" xmlns="http://www.w3.org/2000/svg" xmlns:xlink="http://www.w3.org/1999/xlink" x="0px" y="0px"
	 width="30px" height="30px" viewBox="0 0 30 30" enable-background="new 0 0 30 30" xml:space="preserve">
<g>
	<path fill="#282B3E" d="M29.35,16.5v-3h-2.979c-0.256-1.951-1.012-3.844-2.27-5.48l2.105-2.106l-2.121-2.121L21.98,5.898
		c-1.637-1.257-3.529-2.013-5.48-2.269V0.65h-3v2.98c-1.951,0.256-3.844,1.011-5.48,2.269L5.914,3.792L3.793,5.914L5.898,8.02
		c-1.256,1.636-2.012,3.529-2.268,5.48H0.65v3h2.98c0.256,1.95,1.012,3.843,2.268,5.479l-2.105,2.107l2.121,2.121l2.105-2.107
		c1.637,1.258,3.529,2.014,5.48,2.27v2.98h3v-2.98c1.951-0.256,3.844-1.012,5.48-2.27l2.105,2.107l2.121-2.121l-2.105-2.107
		c1.258-1.636,2.014-3.529,2.27-5.479H29.35z M15,23.479c-2.264,0-4.395-0.882-5.996-2.483c-3.307-3.306-3.307-8.686,0-11.993
		C10.605,7.402,12.736,6.52,15,6.52c2.266,0,4.395,0.882,5.996,2.483c3.307,3.307,3.307,8.687,0,11.993
		C19.395,22.598,17.266,23.479,15,23.479z"/>
	<g>
		<path fill="#282B3E" d="M14.904,13.668c0.205-0.036,0.348,0.051,0.414,0.107c0.111,0.094,0.176,0.232,0.176,0.379h1.227
			c0-0.51-0.225-0.99-0.615-1.318c-0.146-0.124-0.316-0.211-0.492-0.278v-0.667h-1.227v0.659c-0.551,0.212-0.977,0.707-1.078,1.28
			c-0.012,0.063-0.115,0.634,0.252,1.161c0.281,0.401,0.736,0.65,1.35,0.741c0.416,0.061,0.609,0.215,0.576,0.459
			c-0.033,0.189-0.201,0.357-0.393,0.391c-0.205,0.037-0.346-0.051-0.412-0.106c-0.111-0.095-0.176-0.232-0.176-0.379h-1.227
			c0,0.51,0.225,0.99,0.615,1.317c0.148,0.125,0.314,0.221,0.492,0.287v0.658h1.227V17.7c0.551-0.213,0.977-0.707,1.076-1.28
			c0.014-0.063,0.117-0.634-0.252-1.161c-0.279-0.401-0.734-0.65-1.348-0.74c-0.416-0.062-0.611-0.215-0.576-0.459
			C14.547,13.87,14.715,13.702,14.904,13.668z"/>
		<path fill="#282B3E" d="M19.559,10.441c-0.629-0.629-1.357-1.102-2.133-1.416c-0.389-0.158-0.789-0.275-1.195-0.354
			C15.824,8.592,15.412,8.553,15,8.553s-0.824,0.039-1.23,0.118c-0.406,0.079-0.807,0.196-1.195,0.354
			c-0.775,0.314-1.504,0.787-2.133,1.416c-2.518,2.518-2.518,6.599,0,9.116c0.314,0.315,0.654,0.591,1.012,0.826
			c0.357,0.236,0.732,0.434,1.121,0.591c0.775,0.314,1.602,0.472,2.426,0.472s1.65-0.157,2.426-0.472
			c0.389-0.157,0.764-0.354,1.121-0.591c0.357-0.235,0.697-0.511,1.012-0.826C22.076,17.04,22.076,12.959,19.559,10.441z
			 M18.115,18.114c-0.832,0.832-1.939,1.291-3.115,1.291s-2.283-0.459-3.115-1.291c-1.717-1.717-1.717-4.512,0-6.229
			c0.832-0.832,1.939-1.29,3.115-1.29s2.283,0.458,3.115,1.29C19.832,13.603,19.832,16.397,18.115,18.114z"/>
	</g>
</g>
</svg>
