<?xml version="1.0" encoding="utf-8"?>
<!-- Generator: Adobe Illustrator 15.0.0, SVG Export Plug-In . SVG Version: 6.00 Build 0)  -->
<!DOCTYPE svg PUBLIC "-//W3C//DTD SVG 1.1//EN" "http://www.w3.org/Graphics/SVG/1.1/DTD/svg11.dtd">
<svg version="1.1" id="Layer_1" xmlns="http://www.w3.org/2000/svg" xmlns:xlink="http://www.w3.org/1999/xlink" x="0px" y="0px"
	 width="30px" height="30px" viewBox="0 0 30 30" enable-background="new 0 0 30 30" xml:space="preserve">
<path fill="#282B3E" d="M23.757,9.293V2.484L3.058,8.486v0.807v9.993v8.229h23.884V9.293H23.757z M20.757,6.478v2.815h-9.708
	L20.757,6.478z M23.942,24.516H6.058v-5.229v-3v-3.993h14.699h3h0.186v4.611h-0.186H19.53v2.382v0.618h4.412V24.516z"/>
</svg>
