<?xml version="1.0" encoding="utf-8"?>
<!-- Generator: Adobe Illustrator 15.0.0, SVG Export Plug-In . SVG Version: 6.00 Build 0)  -->
<!DOCTYPE svg PUBLIC "-//W3C//DTD SVG 1.1//EN" "http://www.w3.org/Graphics/SVG/1.1/DTD/svg11.dtd">
<svg version="1.1" id="Layer_1" xmlns="http://www.w3.org/2000/svg" xmlns:xlink="http://www.w3.org/1999/xlink" x="0px" y="0px"
	 width="30px" height="30px" viewBox="0 0 30 30" enable-background="new 0 0 30 30" xml:space="preserve">
<g>
	<rect x="8.892" y="0.885" fill="#282B3E" width="6.931" height="2.969"/>
	<path fill="none" d="M4.931,8.737v17.409h14.854v-3.386c-2.367-0.593-4.122-2.727-4.122-5.277c0-2.55,1.755-4.685,4.122-5.276
		v-3.47H4.931z"/>
	<polygon fill="#282B3E" points="20.334,20.05 18.324,18.04 19.374,16.99 20.334,17.95 22.841,15.443 23.892,16.493 	"/>
	<g>
		<path fill="none" d="M15.5,21.54H7.54v-2.346h6.859c-0.14-0.548-0.223-1.119-0.223-1.71c0-0.584,0.081-1.148,0.217-1.69H7.54
			v-2.345h7.944c1.013-1.408,2.536-2.423,4.3-2.766V8.737H4.931v17.409h14.854v-1.861C18.028,23.943,16.513,22.937,15.5,21.54z"/>
		<path fill="none" d="M21.107,13.317c-2.298,0-4.167,1.869-4.167,4.167s1.869,4.166,4.167,4.166s4.167-1.868,4.167-4.166
			S23.405,13.317,21.107,13.317z"/>
		<path fill="#282B3E" d="M28.038,17.484c0-3.254-2.256-5.983-5.285-6.726v-4.99H1.961v23.347h20.792v-4.906
			C25.782,23.468,28.038,20.737,28.038,17.484z M4.931,26.146V8.737h14.854v1.946c-1.764,0.343-3.287,1.357-4.3,2.766H7.54v2.345
			h6.854c-0.137,0.542-0.217,1.106-0.217,1.69c0,0.591,0.083,1.162,0.223,1.71H7.54v2.346H15.5c1.013,1.396,2.529,2.403,4.285,2.745
			v1.861H4.931z M21.107,21.65c-2.298,0-4.167-1.868-4.167-4.166s1.869-4.167,4.167-4.167s4.167,1.869,4.167,4.167
			S23.405,21.65,21.107,21.65z"/>
	</g>
</g>
</svg>
