<?xml version="1.0" encoding="utf-8"?>
<!-- Generator: Adobe Illustrator 22.0.1, SVG Export Plug-In . SVG Version: 6.00 Build 0)  -->
<svg version="1.1" id="Layer_1" xmlns="http://www.w3.org/2000/svg" xmlns:xlink="http://www.w3.org/1999/xlink" x="0px" y="0px"
	 viewBox="0 0 30 30" style="enable-background:new 0 0 30 30;" xml:space="preserve">
<style type="text/css">
	.st0{fill:#282B3E;}
	.st1{fill:none;}
</style>
<title>Artboard 407</title>
<path class="st0" d="M28.7,18.6h-3.6L19,13.2h-6.1c-0.5,0-0.9-0.4-0.9-0.9c0-0.5,0.4-0.9,0.9-0.9h6.9l2.2,2h6.7v-3h-5.5l-2.2-2h-1.3
	c0.5-2.1-0.7-4.2-2.8-4.7c-0.3-0.1-0.6-0.1-1-0.1h-7L3.6,9.6H1.3v3h3.6l5.3-5.9h5.6c0.5,0,0.9,0.4,0.9,0.9c0,0.5-0.4,0.9-0.9,0.9
	c0,0,0,0,0,0h-3c-2.2,0-3.9,1.7-3.9,3.9c0,2.2,1.7,3.9,3.9,3.9h5l3.7,3.2l-6.7,2.5l-8.2-3.3H1.3v3H6l8.8,3.6l9.6-3.6h4.3L28.7,18.6z
	"/>
<rect class="st1" width="30" height="30"/>
</svg>
