<?xml version="1.0" encoding="UTF-8" standalone="no"?>
<svg width="35px" height="46px" viewBox="0 0 35 46" version="1.1" xmlns="http://www.w3.org/2000/svg" xmlns:xlink="http://www.w3.org/1999/xlink">
    <!-- Generator: Sketch 47 (45396) - http://www.bohemiancoding.com/sketch -->
    <title>icon-regular-income-payouts</title>
    <desc>Created with Sketch.</desc>
    <defs>
        <circle id="path-1" cx="14" cy="23" r="11"></circle>
    </defs>
    <g id="GUI" stroke="none" stroke-width="1" fill="none" fill-rule="evenodd">
        <g id="Icons-Copy-2" transform="translate(-612.000000, -576.000000)">
            <g id="icon-regular-income-payouts" transform="translate(613.000000, 577.000000)">
                <polygon id="Path" stroke="#424559" stroke-width="2" stroke-linecap="round" stroke-linejoin="round" points="28 42.1193965 26.2662833 43.8871715 23.2007425 40.7614092 20.0756152 43.8949277 17.0284576 40.7879096 13.9299541 43.8949277 10.8827964 40.7879096 7.78429286 43.8949277 4.70353855 40.753653 1.63039101 43.8871715 0 42.2253983 0 5 28 5"></polygon>
                <g id="Oval-14">
                    <use fill="#00CE6E" fill-rule="evenodd" xlink:href="#path-1"></use>
                    <circle stroke="#424559" stroke-width="2" cx="14" cy="23" r="10"></circle>
                </g>
                <g id="Group-13" transform="translate(11.000000, 17.000000)" stroke-linecap="round" stroke-width="2" stroke="#424559" stroke-linejoin="round">
                    <g id="Group">
                        <path d="M2.74795422,0.282145466 L2.74795422,12.6479394" id="Stroke-5"></path>
                        <path d="M5.34565627,2.78727524 C3.83426958,1.57933404 2.47619759,1.28327907 1.2714403,1.89911033 C0.156899537,2.46882593 -0.165244501,4.31545399 1.2714403,5.22552406 L4.3394293,6.84211373 C6.63936164,7.78107969 6.21999497,10.4294935 4.3394293,10.9103392 C3.09898088,11.227512 1.65713575,10.8310289 0.0138939361,9.72088987" id="Stroke-11"></path>
                    </g>
                </g>
                <polyline id="Path-23" stroke="#424559" stroke-width="2" stroke-linecap="round" stroke-linejoin="round" points="3 0 32.8118367 0 32.8118367 38.2521488"></polyline>
            </g>
        </g>
    </g>
</svg>