<?xml version="1.0" encoding="utf-8"?>
<!-- Generator: Adobe Illustrator 15.0.0, SVG Export Plug-In . SVG Version: 6.00 Build 0)  -->
<!DOCTYPE svg PUBLIC "-//W3C//DTD SVG 1.1//EN" "http://www.w3.org/Graphics/SVG/1.1/DTD/svg11.dtd">
<svg version="1.1" id="Layer_1" xmlns="http://www.w3.org/2000/svg" xmlns:xlink="http://www.w3.org/1999/xlink" x="0px" y="0px"
	 width="30px" height="30px" viewBox="0 0 30 30" enable-background="new 0 0 30 30" xml:space="preserve">
<g>
	<polygon fill="#282B3E" points="13.439,18.577 13.439,15.567 10.43,15.567 10.43,12.967 13.439,12.967 13.439,9.957 16.039,9.957 
		16.039,12.967 19.05,12.967 19.05,15.567 16.039,15.567 16.039,18.577 	"/>
	<path fill="#282B3E" d="M1.227,26.939l6.435-6.437l-4.486-5.136C0.478,12.292,0.58,7.573,3.409,4.623
		c1.425-1.486,3.324-2.305,5.347-2.305c2.024,0,3.924,0.818,5.349,2.305l0.666,0.695l0.666-0.695
		c1.426-1.486,3.325-2.305,5.349-2.305c1.328,0,2.637,0.367,3.786,1.062l0.134,0.082l2.239-2.238l1.838,1.838l-9.225,9.222h-1.986
		v-1.69l5.225-5.223l-0.284-0.112c-0.572-0.226-1.153-0.341-1.727-0.341c-1.309,0-2.542,0.535-3.472,1.505l-2.542,2.652
		l-2.542-2.652c-0.931-0.97-2.164-1.505-3.472-1.505S6.216,5.452,5.286,6.422c-1.903,1.985-1.972,5.162-0.155,7.231l4.373,5.007
		l1.487-1.205h1.69v1.986l-9.616,9.336L1.227,26.939z"/>
	<path fill="#282B3E" d="M10.798,24.095l1.845-1.84l2.121,2.434l9.648-11.028c1.047-1.191,1.494-2.784,1.236-4.386l2.095-2.09
		c1.102,2.786,0.575,5.972-1.377,8.191L14.761,28.642L10.798,24.095z"/>
</g>
</svg>
