<?xml version="1.0" encoding="utf-8"?>
<!-- Generator: Adobe Illustrator 15.0.0, SVG Export Plug-In . SVG Version: 6.00 Build 0)  -->
<!DOCTYPE svg PUBLIC "-//W3C//DTD SVG 1.1//EN" "http://www.w3.org/Graphics/SVG/1.1/DTD/svg11.dtd">
<svg version="1.1" id="Layer_1" xmlns="http://www.w3.org/2000/svg" xmlns:xlink="http://www.w3.org/1999/xlink" x="0px" y="0px"
	 width="30px" height="30px" viewBox="0 0 30 30" enable-background="new 0 0 30 30" xml:space="preserve">
<g>
	<g>
		<g>
			<path fill="none" d="M13.823,10.301c-1.183-1.092-2.706-1.697-4.325-1.697c-1.707,0-3.311,0.664-4.518,1.871
				c-2.491,2.492-2.491,6.545,0,9.035c1.207,1.207,2.812,1.873,4.518,1.873c1.614,0,3.132-0.602,4.313-1.688
				C11.835,16.883,11.839,13.111,13.823,10.301z"/>
			<path fill="#282B3E" d="M13.811,19.695c-1.181,1.086-2.699,1.688-4.313,1.688c-1.707,0-3.311-0.666-4.518-1.873
				c-2.491-2.49-2.491-6.543,0-9.035c1.207-1.207,2.812-1.871,4.518-1.871c1.619,0,3.143,0.605,4.325,1.697
				c0.266-0.377,0.56-0.74,0.897-1.078c0.093-0.092,0.192-0.172,0.289-0.26c-1.56-1.426-3.533-2.148-5.511-2.148
				c-2.093,0-4.187,0.797-5.784,2.395c-3.194,3.195-3.194,8.373,0,11.568c1.597,1.596,3.69,2.395,5.784,2.395
				c1.972,0,3.938-0.717,5.495-2.135c-0.091-0.082-0.185-0.158-0.273-0.246C14.377,20.447,14.08,20.08,13.811,19.695z"/>
			<g>
				<path fill="none" d="M25.021,10.488c-1.206-1.205-2.811-1.871-4.518-1.871c-1.613,0-3.131,0.602-4.312,1.686
					c-0.068,0.062-0.139,0.121-0.205,0.186l-0.981,1.279c-1.17,1.988-1.173,4.473-0.008,6.465c0.27,0.461,0.595,0.898,0.989,1.293
					c0.062,0.061,0.129,0.115,0.192,0.174c1.183,1.092,2.706,1.697,4.325,1.697c1.707,0,3.312-0.666,4.518-1.871
					C27.513,17.033,27.513,12.98,25.021,10.488z"/>
				<path fill="#282B3E" d="M26.286,9.223c-1.596-1.596-3.689-2.395-5.783-2.395c-1.971,0-3.938,0.717-5.495,2.135
					c-0.096,0.088-0.196,0.168-0.289,0.26c-0.337,0.338-0.631,0.701-0.897,1.078c-1.983,2.811-1.988,6.582-0.012,9.395
					c0.269,0.385,0.567,0.752,0.909,1.096c0.088,0.088,0.182,0.164,0.273,0.246c1.559,1.426,3.532,2.148,5.51,2.148
					c2.094,0,4.188-0.799,5.783-2.395C29.481,17.596,29.481,12.418,26.286,9.223z M25.021,19.525
					c-1.206,1.205-2.811,1.871-4.518,1.871c-1.619,0-3.143-0.605-4.325-1.697c-0.063-0.059-0.13-0.113-0.192-0.174
					c-0.395-0.395-0.72-0.832-0.989-1.293c-1.165-1.992-1.162-4.477,0.008-6.465l0.981-1.279c0.066-0.064,0.137-0.123,0.205-0.186
					c1.182-1.084,2.699-1.686,4.312-1.686c1.707,0,3.312,0.666,4.518,1.871C27.513,12.98,27.513,17.033,25.021,19.525z"/>
			</g>
		</g>
		<rect x="6.376" y="14.082" fill="#282B3E" width="6.268" height="1.791"/>
	</g>
	<g>
		<polygon fill="#282B3E" points="21.411,11.889 19.62,11.889 19.62,14.111 17.397,14.111 17.397,15.902 19.62,15.902 19.62,18.125 
			21.411,18.125 21.411,15.902 23.636,15.902 23.636,14.111 21.411,14.111 		"/>
	</g>
</g>
</svg>
