<?xml version="1.0" encoding="UTF-8"?>
<svg width="15px" height="15px" viewBox="0 0 15 15" version="1.1" xmlns="http://www.w3.org/2000/svg" xmlns:xlink="http://www.w3.org/1999/xlink">
    <!-- Generator: Sketch 54.1 (76490) - https://sketchapp.com -->
    <title>icon</title>
    <desc>Created with Sketch.</desc>
    <g id="Symbols" stroke="none" stroke-width="1" fill="none" fill-rule="evenodd">
        <g id="D-Agent-Livechat/Meet" transform="translate(-163.000000, -282.000000)" fill="#FFFFFF">
            <g id="Lets-Meet">
                <g transform="translate(163.000000, 281.000000)">
                    <g id="icon" transform="translate(0.000000, 1.000000)">
                        <path d="M3.52983472,0 C3.0441809,0 2.64705882,0.476409608 2.64705882,1.0590268 L2.64705882,2.64705882 L4.41176471,2.64705882 L4.41176341,1.0590268 C4.41259154,0.476409608 4.01546735,0 3.52981354,0 L3.52983472,0 Z" id="Fill-1"></path>
                        <path d="M12.1866563,2.64705882 L12.1866563,3.56238431 C12.1866563,4.0659451 11.7647897,4.4777098 11.248875,4.4777098 C10.7329603,4.4777098 10.3110938,4.0659451 10.3110938,3.56238431 L10.3110938,2.64705882 L4.68710626,2.64705882 L4.68710626,3.56238431 C4.68710626,4.0659451 4.2652397,4.4777098 3.74932501,4.4777098 C3.23341033,4.4777098 2.81154377,4.0659451 2.81154377,3.56238431 L2.81154377,2.64705882 L0,2.64705882 L0,15 L15,15 L14.9991203,2.64705882 L12.1866563,2.64705882 Z M13.1244375,13.1702275 L1.87466251,13.1702275 L1.87466251,5.39215686 L13.1244375,5.39215686 L13.1244375,13.1702275 Z" id="Fill-2"></path>
                        <path d="M11.4710118,0 C10.9853577,0 10.5882353,0.476409608 10.5882353,1.0590268 L10.5882353,2.64705882 L12.3529412,2.64705882 L12.3529412,1.0590268 C12.3529412,0.476409608 11.9558188,0 11.4709907,0 L11.4710118,0 Z" id="Fill-3"></path>
                        <polygon id="Fill-4" points="6.10471408 11.4705882 3.52941176 9.12740396 4.86534126 7.91188493 6.10471408 9.04036248 9.2523058 6.17647059 10.5882353 7.39117732"></polygon>
                    </g>
                </g>
            </g>
        </g>
    </g>
</svg>